DATA 202: Statistically Measuring and Modeling Social Justice - DATA 202 - Week 12
…
# load libraries
library(gssr)
library(dplyr)
library(tidyr)

Explore variables in the GSSR documentation file

# load the master documentation files
data(gss_all) # note that this is a large file of all GSS data
data(gss_doc) # this is the documentation for the GSS data

# check which years your variables are available
gss_which_years(gss_all, race)

# A tibble: 33 × 2
    year race 
   <dbl> <lgl>
 1  1972 TRUE 
 2  1973 TRUE 
 3  1974 TRUE 
 4  1975 TRUE 
 5  1976 TRUE 
 6  1977 TRUE 
 7  1978 TRUE 
 8  1980 TRUE 
 9  1982 TRUE 
10  1983 TRUE 
# ℹ 23 more rows
…
gss_doc %>% filter(id == "educ") %>% 
  select(id, description, text)

# A tibble: 1 × 3
  id    description                      text                                   
  <chr> <chr>                            <chr>                                  
1 educ  Highest year of school completed 15. What is the highest grade in eleme…

Use the GSSR dictionary documentation

# use the dictionary to get information in a different format
data(gss_dict)
gss_dict

# A tibble: 2,469 × 6
     pos variable label                           col_type value_labels years   
   <int> <chr>    <chr>                           <chr>    <chr>        <list>  
 1     1 wrkstat  labor force status              dbl+lbl  [1] working… <tibble>
 2     2 hrs1     number of hours worked last we… dbl+lbl  [89] 80+ ho… <tibble>
 3     3 hrs2     number of hours usually work a… dbl+lbl  [89] 80+ ho… <tibble>
 4     4 evwork   ever work as long as one year   dbl+lbl  [1] yes; [2… <tibble>
 5     5 wrkslf   r self-emp or works for somebo… dbl+lbl  [1] self-em… <tibble>
 6     6 wrkgovt  govt or private employee        dbl+lbl  [1] governm… <tibble>
 7     7 indus80  r's industry code (1980)        dbl+lbl  [1] strongl… <tibble>
 8     8 occ10    r's census occupation code (20… dbl+lbl  [10] chief … <tibble>
 9     9 indus10  r's industry code (naics 2007)  dbl+lbl  [170] crop … <tibble>
10    10 marital  marital status                  dbl+lbl  [1] married… <tibble>
# ℹ 2,459 more rows
…
