DATA 202: Statistically Measuring and Modeling Social Justice - DATA 202 - Week 13
…
# A tibble: 4 × 3
  id      description                                 text                      
  <chr>   <chr>                                       <chr>                     
1 racdif1 Differences due to discrimination           266. On the average (negr…
2 racdif2 Differences due to in-born learning ability 266. On the average (negr…
3 racdif3 Differences due to lack of education        266. On the average (negr…
4 racdif4 Differences due to lack of will             266. On the average (negr…

# Take a look at the variable marginals
gss_doc %>% filter(id == "racdif1" | id == "racdif2" | id == "racdif3" | id == "racdif4" | id == "raceacs2") %>%
  select(marginals) %>% 
  unnest(cols = c(marginals))

# A tibble: 24 × 5
   percent n      value label id     
     <dbl> <chr>  <chr> <chr> <chr>  
 1    40.3 11,703 1     YES   RACDIF1
 2    59.7 17,309 2     NO    RACDIF1
 3    NA   34,312 0     IAP   RACDIF1
 4    NA   1,353  8     DK    RACDIF1
 5    NA   137    9     <NA>  RACDIF1
 6   100   64,814 <NA>  Total RACDIF1
 7    13.1 3,859  1     YES   RACDIF2
 8    86.9 25,588 2     NO    RACDIF2
 9    NA   34,312 0     IAP   RACDIF2
10    NA   942    8     DK    RACDIF2
# ℹ 14 more rows
…
# View marginals and properties for more than one categorical variable
gss_get_marginals(varnames = c("racdif1", "racdif2", "racdif3", "racdif4"))

# A tibble: 24 × 6
   variable percent     n value label id     
   <chr>      <dbl> <int> <chr> <chr> <chr>  
 1 racdif1     40.3 11703 1     YES   RACDIF1
 2 racdif1     59.7 17309 2     NO    RACDIF1
 3 racdif1     NA   34312 0     IAP   RACDIF1
 4 racdif1     NA    1353 8     DK    RACDIF1
 5 racdif1     NA     137 9     <NA>  RACDIF1
 6 racdif1    100   64814 <NA>  Total RACDIF1
 7 racdif2     13.1  3859 1     YES   RACDIF2
 8 racdif2     86.9 25588 2     NO    RACDIF2
 9 racdif2     NA   34312 0     IAP   RACDIF2
10 racdif2     NA     942 8     DK    RACDIF2
# ℹ 14 more rows
…
# check the data
sapply(df, function(x) sum(is.na(x)))

    vpsu      age     educ   degree  racdif1  racdif2  racdif3  racdif4 
       0        0        0        0        0        0        0        0 
raceacs2   wtssps   vstrat    young 
       0        0        0        0 

df

# A tibble: 2,376 × 12
    vpsu age       educ  degree  racdif1 racdif2 racdif3 racdif4 raceacs2 wtssps
   <dbl> <dbl+lbl> <dbl> <dbl+l> <dbl+l> <dbl+l> <dbl+l> <dbl+l> <dbl+lb>  <dbl>
 1    14 60        16    3 [bac… 1 [yes] 2 [no]  1 [yes] 2 [no]  0 [no]    0.320
 2   183 33        17    3 [bac… 2 [no]  2 [no]  2 [no]  2 [no]  1 [yes]   0.335
 3   116 20        12    1 [hig… 1 [yes] 2 [no]  1 [yes] 2 [no]  0 [no]    7.56 
 4   259 76        13    1 [hig… 1 [yes] 2 [no]  1 [yes] 2 [no]  0 [no]    1.38 
 5   232 37        11    0 [les… 1 [yes] 2 [no]  2 [no]  2 [no]  0 [no]    2.34 
 6   144 21        14    1 [hig… 1 [yes] 2 [no]  1 [yes] 2 [no]  0 [no]    3.90 
 7   144 75        18    4 [gra… 1 [yes] 2 [no]  1 [yes] 2 [no]  0 [no]    0.707
 8   199 22        15    2 [ass… 1 [yes] 2 [no]  1 [yes] 2 [no]  0 [no]    3.15 
 9   199 33        17    4 [gra… 1 [yes] 2 [no]  1 [yes] 2 [no]  0 [no]    0.980
10    82 31        16    3 [bac… 1 [yes] 2 [no]  1 [yes] 2 [no]  0 [no]    0.631
# ℹ 2,366 more rows
# ℹ 2 more variables: vstrat <dbl>, young <chr>

# following in line from the `gssr` package documentation we will label variables by type
cat_vars = c("degree", "racdif1", "racdif2", "racdif3", "racdif4", "raceacs2")
cont_vars = c("age", "educ")
wt_vars = c("wtssps")

# use variable lists to mutate the variables
dfc <- df %>% # create a clean data set
  mutate(wtssps = as.numeric(wtssps)) %>% 
  mutate(across(all_of(cat_vars), forcats::as_factor))
dfc

# A tibble: 2,376 × 12
    vpsu age       educ   degree racdif1 racdif2 racdif3 racdif4 raceacs2 wtssps
   <dbl> <dbl+lbl> <dbl+> <fct>  <fct>   <fct>   <fct>   <fct>   <fct>     <dbl>
 1    14 60        16     bache… yes     no      yes     no      no        0.320
 2   183 33        17     bache… no      no      no      no      yes       0.335
 3   116 20        12     high … yes     no      yes     no      no        7.56 
 4   259 76        13     high … yes     no      yes     no      no        1.38 
 5   232 37        11     less … yes     no      no      no      no        2.34 
 6   144 21        14     high … yes     no      yes     no      no        3.90 
 7   144 75        18     gradu… yes     no      yes     no      no        0.707
 8   199 22        15     assoc… yes     no      yes     no      no        3.15 
 9   199 33        17     gradu… yes     no      yes     no      no        0.980
10    82 31        16     bache… yes     no      yes     no      no        0.631
# ℹ 2,366 more rows
# ℹ 2 more variables: vstrat <dbl>, young <chr>
…
