DATA 202: Statistically Measuring and Modeling Social Justice - DATA 202 - Week 12
…
Explore variables in the GSSR documentation file

# load the master documentation files
data(gss_all) # note that this is a large file of all GSS data
data(gss_doc) # this is the documentation for the GSS data

Use the GSSR dictionary documentation

# use the dictionary to get information in a different format
data(gss_dict)
gss_dict

# A tibble: 2,469 × 6
     pos variable label                           col_type value_labels years   
   <int> <chr>    <chr>                           <chr>    <chr>        <list>  
 1     1 wrkstat  labor force status              dbl+lbl  [1] working… <tibble>
 2     2 hrs1     number of hours worked last we… dbl+lbl  [89] 80+ ho… <tibble>
 3     3 hrs2     number of hours usually work a… dbl+lbl  [89] 80+ ho… <tibble>
 4     4 evwork   ever work as long as one year   dbl+lbl  [1] yes; [2… <tibble>
 5     5 wrkslf   r self-emp or works for somebo… dbl+lbl  [1] self-em… <tibble>
 6     6 wrkgovt  govt or private employee        dbl+lbl  [1] governm… <tibble>
 7     7 indus80  r's industry code (1980)        dbl+lbl  [1] strongl… <tibble>
 8     8 occ10    r's census occupation code (20… dbl+lbl  [10] chief … <tibble>
 9     9 indus10  r's industry code (naics 2007)  dbl+lbl  [170] crop … <tibble>
10    10 marital  marital status                  dbl+lbl  [1] married… <tibble>
# ℹ 2,459 more rows
…
gss_doc %>% filter(id == "educ") %>% 
  select(id, description, text)

# A tibble: 1 × 3
  id    description                      text                                   
  <chr> <chr>                            <chr>                                  
1 educ  Highest year of school completed 15. What is the highest grade in eleme…

Examine the years available for any given variable

# check which years your variables are available
gss_which_years(gss_all, race)

# A tibble: 33 × 2
    year race 
   <dbl> <lgl>
 1  1972 TRUE 
 2  1973 TRUE 
 3  1974 TRUE 
 4  1975 TRUE 
 5  1976 TRUE 
 6  1977 TRUE 
 7  1978 TRUE 
 8  1980 TRUE 
 9  1982 TRUE 
10  1983 TRUE 
# ℹ 23 more rows

gss_which_years(gss_all, sex)

# A tibble: 33 × 2
    year sex  
   <dbl> <lgl>
 1  1972 TRUE 
 2  1973 TRUE 
 3  1974 TRUE 
 4  1975 TRUE 
 5  1976 TRUE 
 6  1977 TRUE 
 7  1978 TRUE 
 8  1980 TRUE 
 9  1982 TRUE 
10  1983 TRUE 
# ℹ 23 more rows

gss_which_years(gss_all, hrs2)

# A tibble: 33 × 2
    year hrs2 
   <dbl> <lgl>
 1  1972 FALSE
 2  1973 TRUE 
 3  1974 TRUE 
 4  1975 TRUE 
 5  1976 TRUE 
 6  1977 TRUE 
 7  1978 TRUE 
 8  1980 TRUE 
 9  1982 TRUE 
10  1983 TRUE 
# ℹ 23 more rows

gss_which_years(gss_all, educ)

# A tibble: 33 × 2
    year educ 
   <dbl> <lgl>
 1  1972 TRUE 
 2  1973 TRUE 
 3  1974 TRUE 
 4  1975 TRUE 
 5  1976 TRUE 
 6  1977 TRUE 
 7  1978 TRUE 
 8  1980 TRUE 
 9  1982 TRUE 
10  1983 TRUE 
# ℹ 23 more rows
…
# loading single year data
gss12 <- gss_get_yr(2012)

Fetching: https://gss.norc.org/documents/stata/2012_stata.zip

# loading panel data by year (not necessary for our course)
data(gss_panel08_long) # 2008 three wave panel data (2008, 2010, 2012)
data(gss_panel_doc) # loading panel documentation

# select your variables for a single year using cross sectional file
gss12 %>% 
  select(race, sex, hrs2, educ, wtssall)

# A tibble: 1,974 × 5
   race      sex        hrs2        educ      wtssall  
   <dbl+lbl> <dbl+lbl>  <dbl+lbl>   <dbl+lbl> <dbl+lbl>
 1 1 [white] 1 [male]   NA(i) [iap] 16        2.62     
 2 1 [white] 1 [male]   NA(i) [iap] 12        3.50     
 3 3 [other] 1 [male]   NA(i) [iap] 12        1.75     
 4 1 [white] 2 [female] NA(i) [iap] 13        1.24     
 5 2 [black] 2 [female] NA(i) [iap] 16        0.874    
 6 1 [white] 2 [female] NA(i) [iap] 19        0.824    
 7 1 [white] 2 [female] NA(i) [iap] 15        0.824    
 8 3 [other] 2 [female] NA(i) [iap] 11        0.412    
 9 2 [black] 2 [female] NA(i) [iap]  9        0.412    
10 1 [white] 2 [female] NA(i) [iap] 17        0.412    
# ℹ 1,964 more rows

gss12 %>% 
  select(race, sex, hrs2, educ, wtssall) %>% 
  count(race, sex, wtssall)

# A tibble: 66 × 4
   race      sex       wtssall       n
   <dbl+lbl> <dbl+lbl> <dbl+lbl> <int>
 1 1 [white] 1 [male]  0.412       167
 2 1 [white] 1 [male]  0.824       280
 3 1 [white] 1 [male]  0.874        34
 4 1 [white] 1 [male]  1.00          1
 5 1 [white] 1 [male]  1.19          1
 6 1 [white] 1 [male]  1.24         46
 7 1 [white] 1 [male]  1.65         22
 8 1 [white] 1 [male]  1.75         95
 9 1 [white] 1 [male]  2.06          7
10 1 [white] 1 [male]  2.62         11
# ℹ 56 more rows
…
We can use a more direct method but we must be careful about our outputs.

gss_all %>% 
  select(year, race, sex, hrs2, educ, wtssall, wtss, wtssnr) %>% 
  filter(year == 2014) %>% 
  drop_na() -> df

sapply(df, function(x) sum(is.na(x))) # take note that the hrs2 variable will cause issue

   year    race     sex    hrs2    educ wtssall    wtss  wtssnr 
      0       0       0       0       0       0       0       0 

df

# A tibble: 40 × 8
    year race      sex        hrs2      educ      wtssall  wtss wtssnr
   <dbl> <dbl+lbl> <dbl+lbl>  <dbl+lbl> <dbl+lbl>   <dbl> <dbl>  <dbl>
 1  2014 1 [white] 2 [female] 40        16          0.448 0.448  0.500
 2  2014 2 [black] 2 [female] 50        14          1.38  1.38   1.54 
 3  2014 3 [other] 2 [female] 50        13          0.448 0.448  0.500
 4  2014 2 [black] 2 [female] 45        18          0.690 0.690  0.770
 5  2014 1 [white] 2 [female] 45        17          0.896 0.896  1.00 
 6  2014 2 [black] 2 [female] 32        12          0.690 0.690  0.735
 7  2014 3 [other] 2 [female] 40        12          2.07  2.07   2.21 
 8  2014 1 [white] 2 [female] 15        12          0.896 0.896  0.954
 9  2014 1 [white] 2 [female] 60        20          0.896 0.896  0.888
10  2014 1 [white] 1 [male]   40        16          0.896 0.896  0.923
# ℹ 30 more rows
…
Analysis of Variance Table

Response: df$educ
          Df Sum Sq Mean Sq F value Pr(>F)
df$hrs2    1   2.05  2.0456  0.1984 0.6585
Residuals 38 391.73 10.3087               

# select your variables for a single year using gss_all
gss_all %>% 
  filter(year == 2012) %>% 
  select(race, sex, hrs2, educ, wtssall, wtss, wtssnr)

# A tibble: 1,974 × 7
   race      sex        hrs2      educ      wtssall  wtss wtssnr
   <dbl+lbl> <dbl+lbl>  <dbl+lbl> <dbl+lbl>   <dbl> <dbl>  <dbl>
 1 1 [white] 1 [male]   NA(i)     16          2.62  2.62   2.87 
 2 1 [white] 1 [male]   NA(i)     12          3.50  3.50   3.83 
 3 3 [other] 1 [male]   NA(i)     12          1.75  1.75   1.91 
 4 1 [white] 2 [female] NA(i)     13          1.24  1.24   1.35 
 5 2 [black] 2 [female] NA(i)     16          0.874 0.874  0.957
 6 1 [white] 2 [female] NA(i)     19          0.824 0.824  0.902
 7 1 [white] 2 [female] NA(i)     15          0.824 0.824  0.902
 8 3 [other] 2 [female] NA(i)     11          0.412 0.412  0.451
 9 2 [black] 2 [female] NA(i)      9          0.412 0.412  0.451
10 1 [white] 2 [female] NA(i)     17          0.412 0.412  0.451
# ℹ 1,964 more rows

gss_all %>% 
  filter(year == 2018) %>% 
  select(race, sex, hrs2, educ, wtssall, wtss, wtssnr)

# A tibble: 2,348 × 7
   race      sex        hrs2      educ      wtssall  wtss wtssnr
   <dbl+lbl> <dbl+lbl>  <dbl+lbl> <dbl+lbl>   <dbl> <dbl>  <dbl>
 1 1 [white] 1 [male]      41     14          2.36  2.36   2.75 
 2 1 [white] 2 [female] NA(i)     10          0.943 0.943  1.10 
 3 1 [white] 1 [male]   NA(i)     16          0.943 0.943  1.10 
 4 1 [white] 2 [female] NA(i)     16          0.943 0.943  1.10 
 5 2 [black] 1 [male]   NA(i)     18          0.943 0.943  1.10 
 6 1 [white] 2 [female] NA(i)     16          0.943 0.943  1.10 
 7 2 [black] 2 [female] NA(i)     13          0.943 0.943  1.10 
 8 1 [white] 1 [male]   NA(i)     12          0.471 0.471  0.551
 9 1 [white] 2 [female] NA(i)      8          0.471 0.471  0.551
10 1 [white] 1 [male]   NA(i)     12          0.943 0.943  1.10 
# ℹ 2,338 more rows
…
